^C:\USERS\MATEJ\APPDATA\ROAMING\NPM\NODE_MODULES\NODE-GYP\SRC\WIN_DELAY_LOAD_HOOK.CC
/c /I"C:\USERS\MATEJ\APPDATA\LOCAL\NODE-GYP\CACHE\14.16.0\INCLUDE\NODE" /I"C:\USERS\MATEJ\APPDATA\LOCAL\NODE-GYP\CACHE\14.16.0\SRC" /I"C:\USERS\MATEJ\APPDATA\LOCAL\NODE-GYP\CACHE\14.16.0\DEPS\OPENSSL\CONFIG" /I"C:\USERS\MATEJ\APPDATA\LOCAL\NODE-GYP\CACHE\14.16.0\DEPS\OPENSSL\OPENSSL\INCLUDE" /I"C:\USERS\MATEJ\APPDATA\LOCAL\NODE-GYP\CACHE\14.16.0\DEPS\UV\INCLUDE" /I"C:\USERS\MATEJ\APPDATA\LOCAL\NODE-GYP\CACHE\14.16.0\DEPS\ZLIB" /I"C:\USERS\MATEJ\APPDATA\LOCAL\NODE-GYP\CACHE\14.16.0\DEPS\V8\INCLUDE" /I"D:\PROGRAMMING\NODE\ALGO-SORTER\API\SERVICES\ADD-ONS\TEST\NODE_MODULES\NODE-ADDON-API" /Z7 /nologo /W3 /WX- /diagnostics:column /Ox /Ob2 /Oi /Ot /Oy /GL /D NODE_GYP_MODULE_NAME=test /D USING_UV_SHARED=1 /D USING_V8_SHARED=1 /D V8_DEPRECATION_WARNINGS=1 /D V8_DEPRECATION_WARNINGS /D V8_IMMINENT_DEPRECATION_WARNINGS /D WIN32 /D _CRT_SECURE_NO_DEPRECATE /D _CRT_NONSTDC_NO_DEPRECATE /D _HAS_EXCEPTIONS=0 /D OPENSSL_NO_PINSHARED /D OPENSSL_THREADS /D NAPI_DISABLE_CPP_EXCEPTIONS /D BUILDING_NODE_EXTENSION /D "HOST_BINARY=\"node.exe\"" /D _WINDLL /GF /Gm- /MT /GS /Gy /fp:precise /Zc:wchar_t /Zc:forScope /Zc:inline /GR- /Fo"RELEASE\OBJ\TEST\\" /Fd"RELEASE\OBJ\TEST\VC142.PDB" /Gd /TP /wd4351 /wd4355 /wd4800 /wd4251 /wd4275 /wd4244 /wd4267 /FC C:\USERS\MATEJ\APPDATA\ROAMING\NPM\NODE_MODULES\NODE-GYP\SRC\WIN_DELAY_LOAD_HOOK.CC
^D:\PROGRAMMING\NODE\ALGO-SORTER\API\SERVICES\ADD-ONS\TEST\SRC\TEST.CPP
/c /I"C:\USERS\MATEJ\APPDATA\LOCAL\NODE-GYP\CACHE\14.16.0\INCLUDE\NODE" /I"C:\USERS\MATEJ\APPDATA\LOCAL\NODE-GYP\CACHE\14.16.0\SRC" /I"C:\USERS\MATEJ\APPDATA\LOCAL\NODE-GYP\CACHE\14.16.0\DEPS\OPENSSL\CONFIG" /I"C:\USERS\MATEJ\APPDATA\LOCAL\NODE-GYP\CACHE\14.16.0\DEPS\OPENSSL\OPENSSL\INCLUDE" /I"C:\USERS\MATEJ\APPDATA\LOCAL\NODE-GYP\CACHE\14.16.0\DEPS\UV\INCLUDE" /I"C:\USERS\MATEJ\APPDATA\LOCAL\NODE-GYP\CACHE\14.16.0\DEPS\ZLIB" /I"C:\USERS\MATEJ\APPDATA\LOCAL\NODE-GYP\CACHE\14.16.0\DEPS\V8\INCLUDE" /I"D:\PROGRAMMING\NODE\ALGO-SORTER\API\SERVICES\ADD-ONS\TEST\NODE_MODULES\NODE-ADDON-API" /Z7 /nologo /W3 /WX- /diagnostics:column /Ox /Ob2 /Oi /Ot /Oy /GL /D NODE_GYP_MODULE_NAME=test /D USING_UV_SHARED=1 /D USING_V8_SHARED=1 /D V8_DEPRECATION_WARNINGS=1 /D V8_DEPRECATION_WARNINGS /D V8_IMMINENT_DEPRECATION_WARNINGS /D WIN32 /D _CRT_SECURE_NO_DEPRECATE /D _CRT_NONSTDC_NO_DEPRECATE /D _HAS_EXCEPTIONS=0 /D OPENSSL_NO_PINSHARED /D OPENSSL_THREADS /D NAPI_DISABLE_CPP_EXCEPTIONS /D BUILDING_NODE_EXTENSION /D "HOST_BINARY=\"node.exe\"" /D _WINDLL /GF /Gm- /MT /GS /Gy /fp:precise /Zc:wchar_t /Zc:forScope /Zc:inline /GR- /Fo"RELEASE\OBJ\TEST\\SRC\TEST.OBJ" /Fd"RELEASE\OBJ\TEST\VC142.PDB" /Gd /TP /wd4351 /wd4355 /wd4800 /wd4251 /wd4275 /wd4244 /wd4267 /FC D:\PROGRAMMING\NODE\ALGO-SORTER\API\SERVICES\ADD-ONS\TEST\SRC\TEST.CPP
^D:\PROGRAMMING\NODE\ALGO-SORTER\API\SERVICES\ADD-ONS\TEST\SRC\INDEX.CPP
/c /I"C:\USERS\MATEJ\APPDATA\LOCAL\NODE-GYP\CACHE\14.16.0\INCLUDE\NODE" /I"C:\USERS\MATEJ\APPDATA\LOCAL\NODE-GYP\CACHE\14.16.0\SRC" /I"C:\USERS\MATEJ\APPDATA\LOCAL\NODE-GYP\CACHE\14.16.0\DEPS\OPENSSL\CONFIG" /I"C:\USERS\MATEJ\APPDATA\LOCAL\NODE-GYP\CACHE\14.16.0\DEPS\OPENSSL\OPENSSL\INCLUDE" /I"C:\USERS\MATEJ\APPDATA\LOCAL\NODE-GYP\CACHE\14.16.0\DEPS\UV\INCLUDE" /I"C:\USERS\MATEJ\APPDATA\LOCAL\NODE-GYP\CACHE\14.16.0\DEPS\ZLIB" /I"C:\USERS\MATEJ\APPDATA\LOCAL\NODE-GYP\CACHE\14.16.0\DEPS\V8\INCLUDE" /I"D:\PROGRAMMING\NODE\ALGO-SORTER\API\SERVICES\ADD-ONS\TEST\NODE_MODULES\NODE-ADDON-API" /Z7 /nologo /W3 /WX- /diagnostics:column /Ox /Ob2 /Oi /Ot /Oy /GL /D NODE_GYP_MODULE_NAME=test /D USING_UV_SHARED=1 /D USING_V8_SHARED=1 /D V8_DEPRECATION_WARNINGS=1 /D V8_DEPRECATION_WARNINGS /D V8_IMMINENT_DEPRECATION_WARNINGS /D WIN32 /D _CRT_SECURE_NO_DEPRECATE /D _CRT_NONSTDC_NO_DEPRECATE /D _HAS_EXCEPTIONS=0 /D OPENSSL_NO_PINSHARED /D OPENSSL_THREADS /D NAPI_DISABLE_CPP_EXCEPTIONS /D BUILDING_NODE_EXTENSION /D "HOST_BINARY=\"node.exe\"" /D _WINDLL /GF /Gm- /MT /GS /Gy /fp:precise /Zc:wchar_t /Zc:forScope /Zc:inline /GR- /Fo"RELEASE\OBJ\TEST\\SRC\INDEX.OBJ" /Fd"RELEASE\OBJ\TEST\VC142.PDB" /Gd /TP /wd4351 /wd4355 /wd4800 /wd4251 /wd4275 /wd4244 /wd4267 /FC D:\PROGRAMMING\NODE\ALGO-SORTER\API\SERVICES\ADD-ONS\TEST\SRC\INDEX.CPP
