^D:\programming\Node\algo-sorter\api\services\add-ons\Test\build\test.vcxproj
D:\programming\Node\algo-sorter\api\services\add-ons\Test\build\Release\test.lib
D:\programming\Node\algo-sorter\api\services\add-ons\Test\build\Release\test.exp
D:\programming\Node\algo-sorter\api\services\add-ons\Test\build\Release\test.ipdb
D:\programming\Node\algo-sorter\api\services\add-ons\Test\build\Release\test.iobj
^D:\programming\Node\algo-sorter\api\services\add-ons\Test\build\test.vcxproj
D:\programming\Node\algo-sorter\api\services\add-ons\Test\build\Release\test.lib
D:\programming\Node\algo-sorter\api\services\add-ons\Test\build\Release\test.exp
D:\programming\Node\algo-sorter\api\services\add-ons\Test\build\Release\test.ipdb
D:\programming\Node\algo-sorter\api\services\add-ons\Test\build\Release\test.iobj
^D:\programming\Node\algo-sorter\api\services\add-ons\Test\build\test.vcxproj
D:\programming\Node\algo-sorter\api\services\add-ons\Test\build\Release\test.lib
D:\programming\Node\algo-sorter\api\services\add-ons\Test\build\Release\test.exp
D:\programming\Node\algo-sorter\api\services\add-ons\Test\build\Release\test.ipdb
D:\programming\Node\algo-sorter\api\services\add-ons\Test\build\Release\test.iobj
^D:\programming\Node\algo-sorter\api\services\add-ons\Test\build\test.vcxproj
D:\programming\Node\algo-sorter\api\services\add-ons\Test\build\Release\test.lib
D:\programming\Node\algo-sorter\api\services\add-ons\Test\build\Release\test.exp
D:\programming\Node\algo-sorter\api\services\add-ons\Test\build\Release\test.ipdb
D:\programming\Node\algo-sorter\api\services\add-ons\Test\build\Release\test.iobj
